{
  "sections": {
    "main-collection-banner": {
      "type": "main-collection-banner",
      "settings": {
        "show_collection_description": false,
        "show_collection_image": false,
        "color_scheme": "accent-2"
      }
    },
    "1647394902a2149858": {
      "type": "image-with-text",
      "blocks": {
        "16473949020c74b469-0": {
          "type": "heading",
          "settings": {
            "heading": "Food service & Caterers",
            "heading_size": "h2"
          }
        },
        "16473949020c74b469-1": {
          "type": "text",
          "settings": {
            "text": "<p>If you are a restaurant owner or you do catering business, we have the right option for you. You need huge quantities of vanilla products for different recipes and  Dr Vanilla’s gallon size variant will be your best bet.<\/p><p>Our wholesale products made in bulk will taste amazing and also cost-effective. To get the best of both worlds - browse our wholesale catalog below.<\/p>",
            "text_style": "body"
          }
        },
        "16473949020c74b469-2": {
          "type": "button",
          "disabled": true,
          "settings": {
            "button_label": "Button label",
            "button_link": ""
          }
        }
      },
      "block_order": [
        "16473949020c74b469-0",
        "16473949020c74b469-1",
        "16473949020c74b469-2"
      ],
      "settings": {
        "image": "shopify:\/\/shop_images\/wholesale.png",
        "height": "adapt",
        "desktop_image_width": "medium",
        "layout": "image_first",
        "desktop_content_position": "top",
        "desktop_content_alignment": "left",
        "content_layout": "no-overlap",
        "color_scheme": "background-1",
        "mobile_content_alignment": "left",
        "padding_top": 36,
        "padding_bottom": 36
      }
    },
    "main-collection-product-grid": {
      "type": "main-collection-product-grid",
      "settings": {
        "products_per_page": 20,
        "image_ratio": "portrait",
        "show_secondary_image": false,
        "show_vendor": false,
        "show_rating": false,
        "enable_filtering": false,
        "enable_sorting": false,
        "collapse_on_larger_devices": false,
        "padding_top": 0,
        "padding_bottom": 0
      }
    },
    "1647395652da221f0d": {
      "type": "image-with-text",
      "blocks": {
        "16473956528474053d-0": {
          "type": "heading",
          "settings": {
            "heading": "Retailers",
            "heading_size": "h2"
          }
        },
        "16473956528474053d-1": {
          "type": "text",
          "settings": {
            "text": "<p>We are looking to partner with any organic or natural grocery store. By becoming Dr Vanilla’s retailers, you are all set to ride that ladder of goodness and sustainability as our products are of supreme quality and it’s a sure thing that those who buy our vanilla products from you will come back for more. <\/p><p>Send your enquiry below or reach us through email or phone to any further questions<\/p>",
            "text_style": "body"
          }
        },
        "16473956528474053d-2": {
          "type": "button",
          "disabled": true,
          "settings": {
            "button_label": "Button label",
            "button_link": ""
          }
        }
      },
      "block_order": [
        "16473956528474053d-0",
        "16473956528474053d-1",
        "16473956528474053d-2"
      ],
      "settings": {
        "image": "shopify:\/\/shop_images\/social-1.jpg",
        "height": "adapt",
        "desktop_image_width": "medium",
        "layout": "image_first",
        "desktop_content_position": "top",
        "desktop_content_alignment": "left",
        "content_layout": "no-overlap",
        "color_scheme": "background-1",
        "mobile_content_alignment": "left",
        "padding_top": 36,
        "padding_bottom": 36
      }
    },
    "164739394869b54a2b": {
      "type": "contact-form",
      "settings": {
        "heading": "Send your enquiry",
        "color_scheme": "accent-2",
        "padding_top": 36,
        "padding_bottom": 36
      }
    },
    "newsletter": {
      "type": "newsletter",
      "blocks": {
        "newsletter-0": {
          "type": "heading",
          "disabled": true,
          "settings": {
            "heading": "Subscribe to our emails"
          }
        },
        "newsletter-1": {
          "type": "paragraph",
          "settings": {
            "text": "<p>Join our email list for exclusive offers and the latest news. <\/p>"
          }
        },
        "newsletter-2": {
          "type": "email_form",
          "settings": {}
        }
      },
      "block_order": [
        "newsletter-0",
        "newsletter-1",
        "newsletter-2"
      ],
      "settings": {
        "color_scheme": "background-2",
        "full_width": false,
        "padding_top": 20,
        "padding_bottom": 20
      }
    }
  },
  "order": [
    "main-collection-banner",
    "1647394902a2149858",
    "main-collection-product-grid",
    "1647395652da221f0d",
    "164739394869b54a2b",
    "newsletter"
  ]
}