{
  "sections": {
    "main": {
      "type": "main-page",
      "settings": {
        "padding_top": 48,
        "padding_bottom": 20
      }
    },
    "1647446831cf3de490": {
      "type": "featured-collection",
      "settings": {
        "title": "Our Products",
        "collection": "products",
        "products_to_show": 4,
        "color_scheme": "accent-2",
        "show_view_all": false,
        "swipe_on_mobile": false,
        "image_ratio": "portrait",
        "show_secondary_image": false,
        "show_vendor": false,
        "show_rating": false,
        "padding_top": 20,
        "padding_bottom": 20
      }
    },
    "164675906019303b47": {
      "type": "image-with-text",
      "blocks": {
        "ee628341-79b9-4a11-bba8-7f8edb414b62": {
          "type": "heading",
          "settings": {
            "heading": "From our Founder",
            "heading_size": "h2"
          }
        },
        "16467590605c9f3d6e-1": {
          "type": "text",
          "settings": {
            "text": "<p>“We believe in sustainability for all. Subsistence vanilla farmers are the backbone of the natural vanilla industry. We are fully committed to providing financial and technical support to these farmers. This is only possible if we have direct relationships, which is why I have been traveling the world to meet with vanilla farmers and vanilla bean processors in Madagascar, Papua New Guinea, Indonesia, India, Uganda, and Mexico.”<\/p>",
            "text_style": "body"
          }
        },
        "5e028ec8-ea03-474c-9be6-867ad0c2fc87": {
          "type": "caption",
          "settings": {
            "caption": "Dr.Krishna Bala, Ph.D",
            "text_style": "subtitle",
            "text_size": "small"
          }
        }
      },
      "block_order": [
        "ee628341-79b9-4a11-bba8-7f8edb414b62",
        "16467590605c9f3d6e-1",
        "5e028ec8-ea03-474c-9be6-867ad0c2fc87"
      ],
      "settings": {
        "image": "shopify:\/\/shop_images\/about-2.png",
        "height": "adapt",
        "desktop_image_width": "medium",
        "layout": "text_first",
        "desktop_content_position": "top",
        "desktop_content_alignment": "left",
        "content_layout": "overlap",
        "color_scheme": "background-2",
        "mobile_content_alignment": "left",
        "padding_top": 36,
        "padding_bottom": 36
      }
    },
    "newsletter": {
      "type": "newsletter",
      "blocks": {
        "newsletter-0": {
          "type": "heading",
          "disabled": true,
          "settings": {
            "heading": "Subscribe to our emails"
          }
        },
        "newsletter-1": {
          "type": "paragraph",
          "settings": {
            "text": "<p>Join our email list for exclusive offers and the latest news. <\/p>"
          }
        },
        "newsletter-2": {
          "type": "email_form",
          "settings": {}
        }
      },
      "block_order": [
        "newsletter-0",
        "newsletter-1",
        "newsletter-2"
      ],
      "settings": {
        "color_scheme": "background-2",
        "full_width": false,
        "padding_top": 20,
        "padding_bottom": 20
      }
    }
  },
  "order": [
    "main",
    "1647446831cf3de490",
    "164675906019303b47",
    "newsletter"
  ]
}