{
  "sections": {
    "main": {
      "type": "main-search",
      "settings": {
        "image_ratio": "adapt",
        "show_secondary_image": false,
        "show_vendor": false,
        "show_rating": false,
        "enable_filtering": true,
        "enable_sorting": true,
        "collapse_on_larger_devices": false,
        "article_show_date": true,
        "article_show_author": false,
        "padding_top": 36,
        "padding_bottom": 36
      }
    },
    "newsletter": {
      "type": "newsletter",
      "blocks": {
        "newsletter-1": {
          "type": "paragraph",
          "settings": {
            "text": "<p>Join our email list for exclusive offers and the latest news. <\/p>"
          }
        },
        "newsletter-2": {
          "type": "email_form",
          "settings": {}
        }
      },
      "block_order": [
        "newsletter-1",
        "newsletter-2"
      ],
      "settings": {
        "color_scheme": "background-2",
        "full_width": false,
        "padding_top": 20,
        "padding_bottom": 20
      }
    }
  },
  "order": [
    "main",
    "newsletter"
  ]
}