{
  "current": {
    "colors_accent_1": "#797846",
    "colors_accent_2": "rgba(0,0,0,0)",
    "gradient_accent_2": "",
    "colors_text": "#2E2A39",
    "colors_outline_button_labels": "#2E2A39",
    "colors_background_1": "#d7f1a9",
    "gradient_background_1": "linear-gradient(180deg, rgba(215, 241, 169, 0.4) 5%, rgba(186, 184, 108, 0.3) 99%)",
    "colors_background_2": "#bab86c",
    "gradient_background_2": "",
    "type_header_font": "alegreya_sans_n5",
    "heading_scale": 120,
    "type_body_font": "alegreya_sans_n4",
    "body_scale": 105,
    "buttons_border_thickness": 0,
    "card_style": "standard",
    "card_image_padding": 0,
    "card_color_scheme": "background-2",
    "card_border_opacity": 10,
    "card_corner_radius": 10,
    "text_boxes_border_thickness": 0,
    "text_boxes_border_opacity": 0,
    "text_boxes_radius": 0,
    "text_boxes_shadow_vertical_offset": 2,
    "text_boxes_shadow_blur": 20,
    "sale_badge_color_scheme": "accent-1",
    "accent_icons": "text",
    "social_facebook_link": "https:\/\/facebook.com\/drvanillallc",
    "social_pinterest_link": "https:\/\/www.pinterest.com\/drvanillallc\/",
    "social_instagram_link": "http:\/\/instagram.com\/drvanillallc",
    "favicon": "shopify:\/\/shop_images\/favicon-32x32.png",
    "checkout_logo_image": "shopify:\/\/shop_images\/logo.png",
    "checkout_logo_position": "center",
    "checkout_logo_size": "large",
    "checkout_body_background_color": "#edf2d7",
    "checkout_input_background_color_mode": "transparent",
    "checkout_sidebar_background_color": "#edf2d7",
    "checkout_heading_font": "Open Sans",
    "checkout_body_font": "Open Sans",
    "checkout_accent_color": "#797846",
    "checkout_button_color": "#797846",
    "sections": {
      "announcement-bar": {
        "type": "announcement-bar",
        "blocks": {
          "announcement-bar-0": {
            "type": "announcement",
            "disabled": true,
            "settings": {
              "text": "Free shipping on all orders!",
              "color_scheme": "background-1",
              "link": ""
            }
          }
        },
        "block_order": [
          "announcement-bar-0"
        ],
        "settings": {}
      },
      "header": {
        "type": "header",
        "settings": {
          "color_scheme": "background-1",
          "logo": "shopify:\/\/shop_images\/logo.png",
          "logo_width": 90,
          "logo_position": "middle-left",
          "menu": "top-navigation",
          "show_line_separator": false,
          "enable_sticky_header": true,
          "margin_bottom": 0
        }
      },
      "footer": {
        "type": "footer",
        "blocks": {
          "fbdbeb3a-5f03-4b77-aac6-899882c5486d": {
            "type": "link_list",
            "settings": {
              "heading": "Company",
              "menu": "top-navigation"
            }
          },
          "footer-image": {
            "type": "image",
            "disabled": true,
            "settings": {
              "image": "shopify:\/\/shop_images\/logo.png",
              "image_width": 125,
              "alignment": "center"
            }
          },
          "footer-linklist": {
            "type": "link_list",
            "settings": {
              "heading": "Policy",
              "menu": "footer"
            }
          },
          "footer-text-0": {
            "type": "text",
            "settings": {
              "heading": "Address",
              "subtext": "<p>31 Cassens Ct.<br\/>Fenton, MO 63026<\/p><p><a href=\"tel:636-600-1027\" title=\"tel:636-600-1027\">636-600-1027<\/a><br\/><a href=\"mailto:info@drvanilla.com\">info@drvanilla.com<\/a><\/p>"
            }
          },
          "footer-text-1": {
            "type": "text",
            "settings": {
              "heading": "Our Promise",
              "subtext": "<p>We welcome any questions you may have about our unique and responsibly sourced vanilla products. If you have any questions or comments, please contact us via email or phone.<\/p>"
            }
          }
        },
        "block_order": [
          "fbdbeb3a-5f03-4b77-aac6-899882c5486d",
          "footer-image",
          "footer-linklist",
          "footer-text-0",
          "footer-text-1"
        ],
        "settings": {
          "color_scheme": "accent-2",
          "newsletter_enable": false,
          "newsletter_heading": "Subscribe to our emails",
          "show_social": true,
          "enable_country_selector": false,
          "enable_language_selector": false,
          "payment_enable": true,
          "margin_top": 0,
          "padding_top": 80,
          "padding_bottom": 24
        }
      },
      "main-password-header": {
        "type": "main-password-header",
        "settings": {
          "logo_max_width": 100,
          "color_scheme": "background-1"
        }
      },
      "main-password-footer": {
        "type": "main-password-footer",
        "settings": {
          "color_scheme": "background-1"
        }
      }
    },
    "content_for_index": []
  }
}